02_data
…
  K-Mean Cluster Analysis

  Cluster Variables

02_data

Bruce Wang

10/10/2019

Group Statistics

df6 %>% group_by(BinStartTime) %>% tally()

## # A tibble: 384 x 2
##    BinStartTime            n
##    <dttm>              <int>
##  1 2018-03-06 07:00:00    20
##  2 2018-03-06 07:15:00    20
##  3 2018-03-06 07:30:00    20
##  4 2018-03-06 07:45:00    20
##  5 2018-03-06 08:00:00    20
##  6 2018-03-06 08:15:00    20
##  7 2018-03-06 08:30:00    20
##  8 2018-03-06 08:45:00    20
##  9 2018-03-06 12:00:00    20
## 10 2018-03-06 12:15:00    20
## # ... with 374 more rows
…
df6 %>% group_by(ArrivalsOnGreen) %>% tally()

## # A tibble: 414 x 2
##    ArrivalsOnGreen     n
##              <dbl> <int>
##  1               0   450
##  2               1     4
##  3               2     2
##  4               3     8
##  5               4    11
##  6               5    21
##  7               6    22
##  8               7    22
##  9               8    38
## 10               9    27
## # ... with 404 more rows

df6 %>% group_by(ArrivalsOnRed) %>% tally()

## # A tibble: 281 x 2
##    ArrivalsOnRed     n
##            <dbl> <int>
##  1             0   529
##  2             1    89
##  3             2   111
##  4             3   125
##  5             4   105
##  6             5    92
##  7             6    94
##  8             7    90
##  9             8   114
## 10             9   111
## # ... with 271 more rows

df6 %>% group_by(ArrivalsOnYellow) %>% tally()

## # A tibble: 52 x 2
##    ArrivalsOnYellow     n
##               <dbl> <int>
##  1                0   950
##  2                1   680
##  3                2   717
##  4                3   734
##  5                4   678
##  6                5   663
##  7                6   564
##  8                7   496
##  9                8   414
## 10                9   325
## # ... with 42 more rows

df6 %>% group_by(TotalVolume) %>% tally()

## # A tibble: 544 x 2
##    TotalVolume     n
##          <dbl> <int>
##  1           0   448
##  2           1     1
##  3           2     4
##  4           3     2
##  5           4     6
##  6           5     9
##  7           6     6
##  8           7    13
##  9           8    12
## 10           9     7
## # ... with 534 more rows

df6 %>% group_by(PlatoonRatio) %>% tally()

## # A tibble: 253 x 2
##    PlatoonRatio     n
##           <dbl> <int>
##  1         0      450
##  2         0.05     1
##  3         0.1      1
##  4         0.11     3
##  5         0.14     1
##  6         0.15     3
##  7         0.16     1
##  8         0.17     1
##  9         0.18     5
## 10         0.19     3
## # ... with 243 more rows

df6 %>% group_by(PercentGreen) %>% tally()

## # A tibble: 92 x 2
##    PercentGreen     n
##           <dbl> <int>
##  1            0     8
##  2           10     2
##  3           11     3
##  4           12    12
##  5           13    18
##  6           14    41
##  7           15    97
##  8           16    84
##  9           17    84
## 10           18    82
## # ... with 82 more rows

df6 %>% group_by(TotalTime) %>% tally()

## # A tibble: 1,189 x 2
##    TotalTime     n
##        <dbl> <int>
##  1        0      8
##  2       80      2
##  3      159.     2
##  4      259.     2
##  5      318.     2
##  6      320      2
##  7      338.     2
##  8      360      2
##  9      372      2
## 10      400      4
## # ... with 1,179 more rows

df6 %>% group_by(TotalGreenTime) %>% tally()

## # A tibble: 4,070 x 2
##    TotalGreenTime     n
##             <dbl> <int>
##  1            0       8
##  2           61.9     2
##  3           77       1
##  4           78.7     1
##  5           81.1     1
##  6           84.7     1
##  7           85.7     1
##  8           86.3     1
##  9           86.9     1
## 10           87.9     1
## # ... with 4,060 more rows

df6 %>% group_by(TotalYellowTime) %>% tally()

## # A tibble: 160 x 2
##    TotalYellowTime     n
##              <dbl> <int>
##  1             0       8
##  2             4.4     1
##  3             4.5    10
##  4             4.6     1
##  5             8.6     2
##  6             9      28
##  7             9.4     2
##  8            12.9     4
##  9            13.2     4
## 10            13.5    56
## # ... with 150 more rows

df6 %>% group_by(TotalRedTime) %>% tally()

## # A tibble: 4,089 x 2
##    TotalRedTime     n
##           <dbl> <int>
##  1          0       8
##  2         12       1
##  3         12.6     2
##  4         12.8     4
##  5         13.6     2
##  6         13.7     2
##  7         23.4     1
##  8         24.2     1
##  9         25.9     3
## 10         26.4     2
## # ... with 4,079 more rows
…
df6 %>% group_by(PhaseNumber) %>% tally()

## # A tibble: 3 x 2
##   PhaseNumber     n
##         <dbl> <int>
## 1           2  3839
## 2           6  3838
## 3          NA     3

df6 %>% group_by(GapOuts) %>% tally()

## # A tibble: 34 x 2
##    GapOuts     n
##      <dbl> <int>
##  1       0  5671
##  2       1   204
##  3       2   399
##  4       3   308
##  5       4   328
##  6       5   191
##  7       6   213
##  8       7   121
##  9       8   102
## 10       9     9
## # ... with 24 more rows

df6 %>% group_by(ForceOffs) %>% tally()

## # A tibble: 28 x 2
##    ForceOffs     n
##        <dbl> <int>
##  1         0   224
##  2         1   123
##  3         2   159
##  4         3   231
##  5         4   367
##  6         5   392
##  7         6   443
##  8         7   675
##  9         8   977
## 10         9   430
## # ... with 18 more rows
…
df6 %>% group_by(VCRatio) %>% tally()

## # A tibble: 7,184 x 2
##     VCRatio     n
##       <dbl> <int>
##  1 0          440
##  2 0.000192     1
##  3 0.000235     1
##  4 0.000236     1
##  5 0.000236     1
##  6 0.000280     1
##  7 0.000295     1
##  8 0.000310     1
##  9 0.000311     1
## 10 0.000325     1
## # ... with 7,174 more rows
…
